K-Lines (candlestick bars) for a symbol — market_klines • binance
…
      volume
      Whether to include volume data in output.

    Value

    A data frame.

    Examples

market_klines("BTCUSDT")

#> # A tibble: 500 × 9
#>    symbol  open_time           close_time            open   high    low  close
#>    <chr>   <dttm>              <dttm>               <dbl>  <dbl>  <dbl>  <dbl>
#>  1 BTCUSDT 2021-10-26 22:56:00 2021-10-26 22:56:59 59933. 60158. 59818. 60081.
#>  2 BTCUSDT 2021-10-26 22:57:00 2021-10-26 22:57:59 60081. 60276. 59970  60183.
#>  3 BTCUSDT 2021-10-26 22:58:00 2021-10-26 22:58:59 60183. 60250  60169  60242.
#>  4 BTCUSDT 2021-10-26 22:59:00 2021-10-26 22:59:59 60242. 60309. 60213. 60292.
#>  5 BTCUSDT 2021-10-26 23:00:00 2021-10-26 23:00:59 60292. 60304. 60181. 60181.
#>  6 BTCUSDT 2021-10-26 23:01:00 2021-10-26 23:01:59 60181. 60390. 60161. 60383.
#>  7 BTCUSDT 2021-10-26 23:02:00 2021-10-26 23:02:59 60380. 60396. 60311. 60389.
#>  8 BTCUSDT 2021-10-26 23:03:00 2021-10-26 23:03:59 60389. 60445. 60367. 60445.
#>  9 BTCUSDT 2021-10-26 23:04:00 2021-10-26 23:04:59 60445. 60448. 60380. 60446.
#> 10 BTCUSDT 2021-10-26 23:05:00 2021-10-26 23:05:59 60446. 60493. 60381. 60456.
#> # … with 490 more rows, and 2 more variables: volume <dbl>, trades <int>
…
